[gd_scene load_steps=8 format=2]

[ext_resource path="res://addons/simple_skybox/Skybox.gd" type="Script" id=1]
[ext_resource path="res://addons/simple_skybox/skybox-bottom.png" type="Texture" id=2]
[ext_resource path="res://addons/simple_skybox/skybox-back.png" type="Texture" id=3]
[ext_resource path="res://addons/simple_skybox/skybox-top.png" type="Texture" id=4]
[ext_resource path="res://addons/simple_skybox/skybox-front.png" type="Texture" id=5]
[ext_resource path="res://addons/simple_skybox/skybox-left.png" type="Texture" id=6]
[ext_resource path="res://addons/simple_skybox/skybox-right.png" type="Texture" id=7]

[node name="Skybox" type="Spatial"]
script = ExtResource( 1 )
TextureFront = ExtResource( 5 )
TextureBack = ExtResource( 3 )
TextureBottom = ExtResource( 2 )
TextureUp = ExtResource( 4 )
TextureLeft = ExtResource( 7 )
TextureRight = ExtResource( 6 )
