[gd_scene load_steps=10 format=2]

[ext_resource path="res://Scene/old-bicycle.tscn" type="PackedScene" id=1]
[ext_resource path="res://addons/godot-openvr/scenes/ovr_first_person.tscn" type="PackedScene" id=2]
[ext_resource path="res://addons/simple_skybox/Skybox.tscn" type="PackedScene" id=3]
[ext_resource path="res://Scene/planet.scn" type="PackedScene" id=4]
[ext_resource path="res://assets/floor.material" type="Material" id=5]
[ext_resource path="res://Scripts/Planet-Spawner.gd" type="Script" id=6]

[sub_resource type="PlaneMesh" id=1]
size = Vector2( 1.637, 4.744 )
subdivide_width = 100
subdivide_depth = 100

[sub_resource type="ProceduralSky" id=2]
sun_color = Color( 0.584314, 0.0156863, 0.0156863, 1 )

[sub_resource type="Environment" id=3]
background_mode = 2
background_sky = SubResource( 2 )
fog_enabled = true
fog_color = Color( 0.388235, 0, 0.254902, 1 )
ss_reflections_enabled = true
ssao_enabled = true
glow_enabled = true
glow_intensity = 1.15
adjustment_enabled = true
adjustment_saturation = 2.55

[node name="Spatial" type="Spatial"]

[node name="OVRFirstPerson" parent="." instance=ExtResource( 2 )]
transform = Transform( 1, 0, 0, 0, 1, 0, 0, 0, 1, 0, 0.580695, 0 )

[node name="Skybox" parent="." instance=ExtResource( 3 )]
transform = Transform( 29.6752, 2.50961, 3.61711, 3.72179e-06, 24.6483, -17.1014, -4.40246, 16.9163, 24.3814, 0, 0.580695, 0 )
steep = 0.2

[node name="Floor" type="MeshInstance" parent="."]
transform = Transform( -1, 0, -8.74228e-08, 0, 1, 0, 8.74228e-08, 0, -1, 0, 0, -0.485243 )
mesh = SubResource( 1 )
material/0 = ExtResource( 5 )

[node name="old-bicycle" parent="." instance=ExtResource( 1 )]
transform = Transform( -4.37114e-08, 0, 1, 0, 1, 0, -1, 0, -4.37114e-08, 0, 0, 0 )

[node name="Planet spawner" type="Spatial" parent="."]
script = ExtResource( 6 )
spawn_time = 0.6

[node name="WorldEnvironment" type="WorldEnvironment" parent="."]
environment = SubResource( 3 )

[node name="planet" parent="." instance=ExtResource( 4 )]
transform = Transform( 1, 0, 0, 0, 1, 0, 0, 0, 1, -3.10595, 0, -1.47341 )
